boards/kc705/test/test.vcd
$date
	Mon Nov 10 23:19:59 2014
$end
$version
	Icarus Verilog
$end
$timescale
	1ps
$end
$scope module tb_system $end
$var wire 24 ! phy_cur [23:0] $end
$var wire 24 " tlp_cur [23:0] $end
$var wire 8 # xgmii_0_txc [7:0] $end
$var wire 64 $ xgmii_0_txd [63:0] $end
$var wire 8 % xgmii_1_txc [7:0] $end
$var wire 64 & xgmii_1_txd [63:0] $end
$var reg 12 ' phy_counter [11:0] $end
$var reg 1 ( sys_clk $end
$var reg 1 ) sys_rst $end
$var reg 12 * tlp_counter [11:0] $end
$var reg 8 + xgmii_0_rxc [7:0] $end
$var reg 64 , xgmii_0_rxd [63:0] $end
$var reg 8 - xgmii_1_rxc [7:0] $end
$var reg 64 . xgmii_1_rxd [63:0] $end
$scope module measure_inst $end
$var wire 32 / crc32_out [31:0] $end
$var wire 32 0 crc32_outrev [31:0] $end
$var wire 32 1 crc64_out [31:0] $end
$var wire 32 2 crc64_outrev [31:0] $end
$var wire 1 3 crc_data_en $end
$var wire 16 4 frame_crc1_count [15:0] $end
$var wire 16 5 frame_crc2_count [15:0] $end
$var wire 16 6 frame_crc3_count [15:0] $end
$var wire 16 7 frame_crc4_count [15:0] $end
$var wire 16 8 frame_end_count [15:0] $end
$var wire 32 9 ipv4_dstip [31:0] $end
$var wire 32 : magic_code [31:0] $end
$var wire 1 ; pci_clk $end
$var wire 32 < rx1_ipv4_ip [31:0] $end
$var wire 24 = rx1_latency [23:0] $end
$var wire 32 > rx1_pps [31:0] $end
$var wire 32 ? rx1_throughput [31:0] $end
$var wire 32 @ rx2_ipv4_ip [31:0] $end
$var wire 24 A rx2_latency [23:0] $end
$var wire 32 B rx2_pps [31:0] $end
$var wire 32 C rx2_throughput [31:0] $end
$var wire 32 D rx3_ipv4_ip [31:0] $end
$var wire 24 E rx3_latency [23:0] $end
$var wire 32 F rx3_pps [31:0] $end
$var wire 32 G rx3_throughput [31:0] $end
$var wire 1 H sys_clk $end
$var wire 1 I sys_rst $end
$var wire 32 J tv_sec [31:0] $end
$var wire 32 K tv_usec [31:0] $end
$var wire 1 L tx0_enable $end
$var wire 16 M tx0_frame_len [15:0] $end
$var wire 1 N tx0_fullroute $end
$var wire 32 O tx0_inter_frame_gap [31:0] $end
$var wire 16 P tx0_ip_len [15:0] $end
$var wire 32 Q tx0_ipv4_dstip [31:0] $end
$var wire 32 R tx0_ipv4_gwip [31:0] $end
$var wire 32 S tx0_ipv4_ip [31:0] $end
$var wire 32 T tx0_ipv4_srcip [31:0] $end
$var wire 1 U tx0_ipv6 $end
$var wire 128 V tx0_ipv6_dstip [127:0] $end
$var wire 128 W tx0_ipv6_srcip [127:0] $end
$var wire 1 X tx0_req_arp $end
$var wire 48 Y tx0_src_mac [47:0] $end
$var wire 16 Z tx0_udp_len [15:0] $end
$var wire 1 [ tx_ipv6 $end
$var wire 8 \ xgmii_0_rxc [7:0] $end
$var wire 64 ] xgmii_0_rxd [63:0] $end
$var wire 8 ^ xgmii_0_txc [7:0] $end
$var wire 64 _ xgmii_0_txd [63:0] $end
$var wire 8 ` xgmii_1_rxc [7:0] $end
$var wire 64 a xgmii_1_rxd [63:0] $end
$var wire 8 b xgmii_1_txc [7:0] $end
$var wire 64 c xgmii_1_txd [63:0] $end
$var wire 8 d xgmii_2_rxc [7:0] $end
$var wire 64 e xgmii_2_rxd [63:0] $end
$var wire 8 f xgmii_2_txc [7:0] $end
$var wire 64 g xgmii_2_txd [63:0] $end
$var wire 8 h xgmii_3_rxc [7:0] $end
$var wire 64 i xgmii_3_rxd [63:0] $end
$var wire 8 j xgmii_3_txc [7:0] $end
$var wire 64 k xgmii_3_txd [63:0] $end
$var reg 1 l crc_init $end
$var reg 1 m crc_rewrite $end
$var reg 24 n full_ipv4 [23:0] $end
$var reg 32 o gap_count [31:0] $end
$var reg 32 p global_counter [31:0] $end
$var reg 24 q ip_sum [23:0] $end
$var reg 17 r ipv4_id [16:0] $end
$var reg 8 s ipv4_ttl [7:0] $end
$var reg 32 t pps [31:0] $end
$var reg 28 u sec_counter [27:0] $end
$var reg 1 v sec_oneshot $end
$var reg 32 w throughput [31:0] $end
$var reg 16 x tmp_counter [15:0] $end
$var reg 48 y tx0_dst_mac [47:0] $end
$var reg 32 z tx0_pps [31:0] $end
$var reg 32 { tx0_throughput [31:0] $end
$var reg 32 | tx_counter [31:0] $end
$var reg 3 } tx_state [2:0] $end
$var reg 8 ~ txc [7:0] $end
$var reg 8 !" txc2 [7:0] $end
$var reg 64 "" txd [63:0] $end
$var reg 64 #" txd2 [63:0] $end
$scope module crc32_d64_inst $end
$var wire 1 H clk $end
$var wire 1 3 crc_en $end
$var wire 32 $" crc_out [31:0] $end
$var wire 64 %" data_in [63:0] $end
$var wire 1 &" rst $end
$var reg 32 '" lfsr_c [31:0] $end
$var reg 32 (" lfsr_q [31:0] $end
$upscope $end
$scope module crc32_d32_inst $end
$var wire 32 )" crc_in [31:0] $end
$var wire 32 *" crc_out [31:0] $end
$var wire 32 +" data_in [31:0] $end
$var wire 32 ," lfsr_q [31:0] $end
$var reg 32 -" lfsr_c [31:0] $end
$upscope $end
$scope module measure_phy1 $end
$var wire 32 ." global_counter [31:0] $end
$var wire 1 ; pci_clk $end
$var wire 1 /" sec_oneshot $end
$var wire 1 H sys_clk $end
$var wire 1 I sys_rst $end
$var wire 1 [ tx_ipv6 $end
$var wire 8 0" xgmii_rxc [7:0] $end
$var wire 64 1" xgmii_rxd [63:0] $end
$var wire 8 2" xgmii_txc [7:0] $end
$var wire 64 3" xgmii_txd [63:0] $end
$var reg 32 4" counter_end [31:0] $end
$var reg 32 5" counter_start [31:0] $end
$var reg 32 6" pps [31:0] $end
$var reg 16 7" rx_count [15:0] $end
$var reg 16 8" rx_dport [15:0] $end
$var reg 32 9" rx_ipv4_ip [31:0] $end
$var reg 24 :" rx_latency [23:0] $end
$var reg 24 ;" rx_latency1 [23:0] $end
$var reg 24 <" rx_latency2 [23:0] $end
$var reg 32 =" rx_magic [31:0] $end
$var reg 32 >" rx_pps [31:0] $end
$var reg 32 ?" rx_pps1 [31:0] $end
$var reg 32 @" rx_pps2 [31:0] $end
$var reg 8 A" rx_protocol [7:0] $end
$var reg 48 B" rx_src_mac [47:0] $end
$var reg 32 C" rx_throughput [31:0] $end
$var reg 32 D" rx_throughput1 [31:0] $end
$var reg 32 E" rx_throughput2 [31:0] $end
$var reg 16 F" rx_type [15:0] $end
$var reg 32 G" throughput [31:0] $end
$var reg 48 H" tx_dst_mac [47:0] $end
$upscope $end
$upscope $end
$scope task waitclock $end
$upscope $end
$upscope $end
$enddefinitions $end
#0
$dumpvars
bx H"
bx G"
bx F"
bx E"
bx D"
bx C"
bx B"
bx A"
bx @"
bx ?"
bx >"
bx ="
bx <"
bx ;"
bx :"
bx 9"
bx 8"
b0 7"
bx 6"
bx 5"
bx 4"
b11100000111000001110000011100000111000001110000011100000111 3"
b11111111 2"
bx 1"
bx 0"
x/"
bx ."
bx -"
bx ,"
bx +"
bx *"
bx )"
bx ("
bx '"
0&"
bx %"
bx $"
bx #"
bx ""
bx !"
bx ~
bx }
bx |
bx {
bx z
bx y
bx x
bx w
xv
bx u
bx t
b1000000 s
b0 r
bx q
bx p
bx o
bx n
0m
0l
b11100000111000001110000011100000111000001110000011100000111 k
b11111111 j
bz i
bz h
b11100000111000001110000011100000111000001110000011100000111 g
b11111111 f
bz e
bz d
b11100000111000001110000011100000111000001110000011100000111 c
b11111111 b
bx a
bx `
bx _
bx ^
bx ]
bx \
z[
b11110 Z
b1000100100010001100110100010001100110 Y
0X
bz W
bz V
0U
b11000000101010000000000101100101 T
b11000000101010000000001001100110 S
b11000000101010000000000100000001 R
b11000000101010000000001001100110 Q
b110010 P
b1 O
0N
b1000100 M
1L
b0xxxxxxxxxxxxxxxx K
b1010011110011100100110000000011 J
1I
0H
bz G
bz F
bz E
bz D
bz C
bz B
bz A
bz @
bx ?
bx >
bx =
bx <
z;
b10111110100110111110100101010101 :
b11000000101010000000001001100110 9
b1001100 8
b1001011 7
b1001010 6
b1001001 5
b1001000 4
13
bx 2
bx 1
bx 0
bx /
bx .
bx -
bx ,
bx +
bx *
1)
0(
bx '
b11100000111000001110000011100000111000001110000011100000111 &
b11111111 %
bx $
bx #
bx "
b0xxxxxxxxxxxx !
$end
#8
bx '"
bx -"
b1110000011100000111000001110000011100000111000001110000011100000 %"
b11100000111000001110000011100000 +"
b0 8"
b0 A"
b0 H"
b0 B"
b0 F"
b0 D"
b0 ?"
b0 G"
b0 6"
b0 4"
b0 5"
b0 ="
0v
0/"
b1001010100000010111110010000 u
b0 p
b0 ."
b10 }
b0 n
b0 {
b0 z
b0 w
b0 t
b111111111111111111111111111111111111111111111111 y
b11111111 ~
b11100000111000001110000011100000111000001110000011100000111 ""
b0 x
b0 K
b0 |
1(
1H
#16
0(
0H
#24
1(
1H
#25
0)
0I
#32
0(
0H
#40
b10001011101011101001100111000110 0
b0 2
b101110100010100110011010011100 /
b101110100010100110011010011100 *"
b11111111111111111111111111111111 ("
b11111111111111111111111111111111 ,"
b11111111111111111111111111111111 1
b11111111111111111111111111111111 $"
b11111111111111111111111111111111 )"
b100111110101010000101001000010 '"
b101110100010100110011010011100 -"
03
b1101111110101010101010101010101010101010101010101010101010101011 %"
b11011111101010101010101010101010 +"
b1001010100000010111110001111 u
b1 p
b1 ."
1l
1&"
b100000101001011110 q
b1 ~
b1101010101010101010101010101010101010101010101010101010111111011 ""
b1 t
b1000 |
b11100000111000001110000011100000111000001110000011100000111 #"
b11100000111000001110000011100000111000001110000011100000111 $
b11100000111000001110000011100000111000001110000011100000111 _
b11111111 !"
b11111111 #
b11111111 ^
1(
1H
#48
0(
0H
#56
b11111111111111111111111111111111 0
b1110111010010001011010001010000 '"
b0 /
b0 *"
b0 -"
13
b1111111111111111111111111111111111111111111111110000000010001000 %"
b11111111111111111111111111111111 +"
0l
0&"
b111111111111010110011111 q
b0 ~
b1000100000000111111111111111111111111111111111111111111111111 ""
b10000 |
b1101010101010101010101010101010101010101010101010101010111111011 #"
b1101010101010101010101010101010101010101010101010101010111111011 $
b1101010101010101010101010101010101010101010101010101010111111011 _
b1 !"
b1 #
b1 ^
b10 p
b10 ."
b1001010100000010111110001110 u
1(
1H
#64
0(
0H
#72
b1011011111111101000000001010 0
b10001111011011101001011110101 2
b100010011001100001000100110011000010000000000001010001000000000 %"
b1000100110011000010001001100110 +"
b10000100111011000000001011111110 '"
b101111000000011111010010101111 /
b101111000000011111010010101111 *"
b101111000000011111010010101111 -"
b1001010100000010111110001101 u
b11 p
b11 ."
b1000101000000000000100001100110010001000011001100100010 ""
b11000 |
b1000100000000111111111111111111111111111111111111111111111111 #"
b1000100000000111111111111111111111111111111111111111111111111 $
b1000100000000111111111111111111111111111111111111111111111111 _
b0 !"
b0 #
b0 ^
b1110111010010001011010001010000 ("
b1110111010010001011010001010000 ,"
b1110111010010001011010001010000 1
b1110111010010001011010001010000 $"
b1110111010010001011010001010000 )"
1(
1H
#80
0(
0H
#88
b11100111110101100111100111010001 0
b11011110110010001011111110000000 2
b1001100000000000000000000000000000000000000001010001000 %"
b10011000000000000000000 +"
b1010111111110101110111110010001 '"
b11000100101000110000101110100 -"
b11000100101000110000101110100 /
b11000100101000110000101110100 *"
b1000101000000000000000000000000000000000000000011001000000000 ""
b100000 |
b1000101000000000000100001100110010001000011001100100010 #"
b1000101000000000000100001100110010001000011001100100010 $
b1000101000000000000100001100110010001000011001100100010 _
b100 p
b100 ."
b1001010100000010111110001100 u
b10000100111011000000001011111110 ("
b10000100111011000000001011111110 ,"
b10000100111011000000001011111110 1
b10000100111011000000001011111110 $"
b10000100111011000000001011111110 )"
1(
1H
#96
0(
0H
#104
b11100100111100100010010111010 0
b10101101000000000100001110110 2
b1010111111111001000000110001010110000000101001100000001100010101 %"
b10101111111110010000001100010101 +"
b11101001111110001111000010010110 '"
b11000111100001101101110110100010 /
b11000111100001101101110110100010 *"
b11000111100001101101110110100010 -"
b1001010100000010111110001011 u
b101 p
b101 ."
b1010100011000000011001010000000110101000110000001001111111110101 ""
b101000 |
b1000101000000000000000000000000000000000000000011001000000000 #"
b1000101000000000000000000000000000000000000000011001000000000 $
b1000101000000000000000000000000000000000000000011001000000000 _
b1010111111110101110111110010001 ("
b1010111111110101110111110010001 ,"
b1010111111110101110111110010001 1
b1010111111110101110111110010001 $"
b1010111111110101110111110010001 )"
1(
1H
#112
0(
0H
#120
b100001110000000110101111100100 0
b1101000111000001111000010010110 2
b100000001100110000000001001000000000000100100000000000001111000 %"
b1000000011001100000000010010000 +"
b10011000001101110101010011000001 '"
b1111011111111000010100111011000 -"
b1111011111111000010100111011000 /
b1111011111111000010100111011000 *"
b1111000000000000010010000000000001001000000000110011000000010 ""
b110000 |
b1010100011000000011001010000000110101000110000001001111111110101 #"
b1010100011000000011001010000000110101000110000001001111111110101 $
b1010100011000000011001010000000110101000110000001001111111110101 _
b110 p
b110 ."
b1001010100000010111110001010 u
b11101001111110001111000010010110 ("
b11101001111110001111000010010110 ,"
b11101001111110001111000010010110 1
b11101001111110001111000010010110 $"
b11101001111110001111000010010110 )"
1(
1H
#128
0(
0H
#136
b1100110000110010101011101110100 0
b11100110000100111101010101111100 2
b11111011101100110010111101010100000000000000000 %"
b111110111011001 +"
b111001001100011100100100001101 '"
b10011001011001110001010111010001 /
b10011001011001110001010111010001 *"
b10011001011001110001010111010001 -"
b1001010100000010111110001001 u
b111 p
b111 ."
b110 x
b110 K
b10101011110100110011011101111100000000000000000 ""
b111000 |
b1111000000000000010010000000000001001000000000110011000000010 #"
b1111000000000000010010000000000001001000000000110011000000010 $
b1111000000000000010010000000000001001000000000110011000000010 _
b10011000001101110101010011000001 ("
b10011000001101110101010011000001 ,"
b10011000001101110101010011000001 1
b10011000001101110101010011000001 $"
b10011000001101110101010011000001 )"
1(
1H
#144
0(
0H
#152
b11000000101101001000110010011000 0
b1100011011100110110110001001111 2
b1100000110010100111001100110010110000000000000000000000 %"
b11000001100101001110011 +"
b100011101100001110001100001011 '"
b11111100110100101100111011100110 /
b11111100110100101100111011100110 *"
b11111100110100101100111011100110 -"
b110100110011001110010100110000011000000000 ""
b1000000 |
b10101011110100110011011101111100000000000000000 #"
b10101011110100110011011101111100000000000000000 $
b10101011110100110011011101111100000000000000000 _
b1000 p
b1000 ."
b1001010100000010111110001000 u
b111001001100011100100100001101 ("
b111001001100011100100100001101 ,"
b111001001100011100100100001101 1
b111001001100011100100100001101 $"
b111001001100011100100100001101 )"
1(
1H
#160
0(
0H
#168
b10010111110101110110100001000 0
b111011111100100011100000101111 2
b1100000000000000000000010100111101001111010011110100111 %"
b11000000000000000000000 +"
b10111110011111110100100000100011 '"
b10110111101000000100100011101111 /
b10110111101000000100100011101111 *"
b10110111101000000100100011101111 -"
b1001010100000010111110000111 u
b1001 p
b1001 ."
1m
b1110010111100101111001011110010100000000000000000000011000000000 ""
b1001000 |
b110100110011001110010100110000011000000000 #"
b110100110011001110010100110000011000000000 $
b110100110011001110010100110000011000000000 _
b100011101100001110001100001011 ("
b100011101100001110001100001011 ,"
b100011101100001110001100001011 1
b100011101100001110001100001011 $"
b100011101100001110001100001011 )"
1(
1H
#176
0(
0H
#184
b10000101011101000110101110011101 0
b10000010000000011110110100111011 2
b1011111111100000111000001110000011100000111000001110000011100000 %"
b10111111111000001110000011100000 +"
b11010101011010110111001101101000 '"
b1011110110100010010100101000110 /
b1011110110100010010100101000110 *"
b1011110110100010010100101000110 -"
b100 }
b0 o
b11111111 ~
b11100000111000001110000011100000111000001110000011111111101 ""
b0 |
b100011101101111110100001001000000000000000000000011000000000 #"
b100011101101111110100001001000000000000000000000011000000000 $
b100011101101111110100001001000000000000000000000011000000000 _
0m
b1010 p
b1010 ."
b1001010100000010111110000110 u
b10111110011111110100100000100011 ("
b10111110011111110100100000100011 ,"
b10111110011111110100100000100011 1
b10111110011111110100100000100011 $"
b10111110011111110100100000100011 )"
1(
1H
#192
0(
0H
#200
b10110000010010101000000100000100 0
b1010100001010010011000111101001 2
b1110000011100000111000001110000011100000111000001110000011100000 %"
b11100000111000001110000011100000 +"
b100100011001000011000101001011 '"
b11110010101011010111111011011111 /
b11110010101011010111111011011111 *"
b11110010101011010111111011011111 -"
b1001010100000010111110000101 u
b1011 p
b1011 ."
b10 }
b1 n
b1000000 w
b11111111111111111111111111111111 o
b11100000111000001110000011100000111000001110000011100000111 ""
b11100000111000001110000011100000111000001110000011111111101 #"
b11100000111000001110000011100000111000001110000011111111101 $
b11100000111000001110000011100000111000001110000011111111101 _
b11111111 !"
b11111111 #
b11111111 ^
b11010101011010110111001101101000 ("
b11010101011010110111001101101000 ,"
b11010101011010110111001101101000 1
b11010101011010110111001101101000 $"
b11010101011010110111001101101000 )"
1(
1H
#208
0(
0H
#216
b10001011101011101001100111000110 0
b0 2
03
b1101111110101010101010101010101010101010101010101010101010101011 %"
b11011111101010101010101010101010 +"
b100111110101010000101001000010 '"
b101110100010100110011010011100 /
b101110100010100110011010011100 *"
b101110100010100110011010011100 -"
1l
1&"
b100000101001011110 q
b1 ~
b1101010101010101010101010101010101010101010101010101010111111011 ""
b10 t
b1000 |
b11100000111000001110000011100000111000001110000011100000111 #"
b11100000111000001110000011100000111000001110000011100000111 $
b11100000111000001110000011100000111000001110000011100000111 _
b1100 p
b1100 ."
b1001010100000010111110000100 u
b11111111111111111111111111111111 ("
b11111111111111111111111111111111 ,"
b11111111111111111111111111111111 1
b11111111111111111111111111111111 $"
b11111111111111111111111111111111 )"
1(
1H
#224
0(
0H
#232
b11111111111111111111111111111111 0
b1110111010010001011010001010000 '"
b0 /
b0 *"
b0 -"
13
b1111111111111111111111111111111111111111111111110000000010001000 %"
b11111111111111111111111111111111 +"
b1001010100000010111110000011 u
b1101 p
b1101 ."
0l
0&"
b111111111111010110011111 q
b0 ~
b1000100000000111111111111111111111111111111111111111111111111 ""
b10000 |
b1101010101010101010101010101010101010101010101010101010111111011 #"
b1101010101010101010101010101010101010101010101010101010111111011 $
b1101010101010101010101010101010101010101010101010101010111111011 _
b1 !"
b1 #
b1 ^
1(
1H
#240
0(
0H
#248
b1011011111111101000000001010 0
b10001111011011101001011110101 2
b100010011001100001000100110011000010000000000001010001000000000 %"
b1000100110011000010001001100110 +"
b10000100111011000000001011111110 '"
b101111000000011111010010101111 /
b101111000000011111010010101111 *"
b101111000000011111010010101111 -"
b1000101000000000000100001100110010001000011001100100010 ""
b11000 |
b1000100000000111111111111111111111111111111111111111111111111 #"
b1000100000000111111111111111111111111111111111111111111111111 $
b1000100000000111111111111111111111111111111111111111111111111 _
b0 !"
b0 #
b0 ^
b1110 p
b1110 ."
b1001010100000010111110000010 u
b1110111010010001011010001010000 ("
b1110111010010001011010001010000 ,"
b1110111010010001011010001010000 1
b1110111010010001011010001010000 $"
b1110111010010001011010001010000 )"
1(
1H
#256
0(
0H
#264
b11100111110101100111100111010001 0
b11011110110010001011111110000000 2
b1001100000000000000000000000000000000000000001010001000 %"
b10011000000000000000000 +"
b1010111111110101110111110010001 '"
b11000100101000110000101110100 -"
b11000100101000110000101110100 /
b11000100101000110000101110100 *"
b1001010100000010111110000001 u
b1111 p
b1111 ."
b1000101000000000000000000000000000000000000000011001000000000 ""
b100000 |
b1000101000000000000100001100110010001000011001100100010 #"
b1000101000000000000100001100110010001000011001100100010 $
b1000101000000000000100001100110010001000011001100100010 _
b10000100111011000000001011111110 ("
b10000100111011000000001011111110 ,"
b10000100111011000000001011111110 1
b10000100111011000000001011111110 $"
b10000100111011000000001011111110 )"
1(
1H
#272
0(
0H
#280
b11100100111100100010010111010 0
b10101101000000000100001110110 2
b1010111111111001000000110001010110000000101001100000001100010101 %"
b10101111111110010000001100010101 +"
b11101001111110001111000010010110 '"
b11000111100001101101110110100010 /
b11000111100001101101110110100010 *"
b11000111100001101101110110100010 -"
b1010100011000000011001010000000110101000110000001001111111110101 ""
b101000 |
b1000101000000000000000000000000000000000000000011001000000000 #"
b1000101000000000000000000000000000000000000000011001000000000 $
b1000101000000000000000000000000000000000000000011001000000000 _
b10000 p
b10000 ."
b1001010100000010111110000000 u
b1010111111110101110111110010001 ("
b1010111111110101110111110010001 ,"
b1010111111110101110111110010001 1
b1010111111110101110111110010001 $"
b1010111111110101110111110010001 )"
1(
1H
#288
0(
0H
#296
b100001110000000110101111100100 0
b1101000111000001111000010010110 2
b100000001100110000000001001000000000000100100000000000001111000 %"
b1000000011001100000000010010000 +"
b10011000001101110101010011000001 '"
b1111011111111000010100111011000 -"
b1111011111111000010100111011000 /
b1111011111111000010100111011000 *"
b1001010100000010111101111111 u
b10001 p
b10001 ."
b1111000000000000010010000000000001001000000000110011000000010 ""
b110000 |
b1010100011000000011001010000000110101000110000001001111111110101 #"
b1010100011000000011001010000000110101000110000001001111111110101 $
b1010100011000000011001010000000110101000110000001001111111110101 _
b11101001111110001111000010010110 ("
b11101001111110001111000010010110 ,"
b11101001111110001111000010010110 1
b11101001111110001111000010010110 $"
b11101001111110001111000010010110 )"
1(
1H
#304
0(
0H
#312
b1100110000110010101011101110100 0
b11100110000100111101010101111100 2
b11111011101100110010111101010100000000000000000 %"
b111110111011001 +"
b111001001100011100100100001101 '"
b10011001011001110001010111010001 /
b10011001011001110001010111010001 *"
b10011001011001110001010111010001 -"
b10001 x
b10001 K
b10101011110100110011011101111100000000000000000 ""
b111000 |
b1111000000000000010010000000000001001000000000110011000000010 #"
b1111000000000000010010000000000001001000000000110011000000010 $
b1111000000000000010010000000000001001000000000110011000000010 _
b10010 p
b10010 ."
b1001010100000010111101111110 u
b10011000001101110101010011000001 ("
b10011000001101110101010011000001 ,"
b10011000001101110101010011000001 1
b10011000001101110101010011000001 $"
b10011000001101110101010011000001 )"
1(
1H
#320
0(
0H
#328
b110101000000011110010110000001 0
b1100011011100110110110001001111 2
b10001000110010100111001100110010110000000000000000000000 %"
b100010001100101001110011 +"
b100001111101010111110101001110 '"
b1010011011111110101100001111110 /
b1010011011111110101100001111110 *"
b1010011011111110101100001111110 -"
b1001010100000010111101111101 u
b10011 p
b10011 ."
b110100110011001110010100110001000100000000 ""
b1000000 |
b10101011110100110011011101111100000000000000000 #"
b10101011110100110011011101111100000000000000000 $
b10101011110100110011011101111100000000000000000 _
b111001001100011100100100001101 ("
b111001001100011100100100001101 ,"
b111001001100011100100100001101 1
b111001001100011100100100001101 $"
b111001001100011100100100001101 )"
1(
1H
#336
0(
0H
#344
b10101111100111100100100110010110 0
b1111011010100000100000110001101 2
b10001000000000000000000010100111101001111010011110100111 %"
b100010000000000000000000 +"
b10110001100110001000010011101 '"
b1010100001100110110110010110 -"
b1010100001100110110110010110 /
b1010100001100110110110010110 *"
1m
b1110010111100101111001011110010100000000000000000001000100000000 ""
b1001000 |
b110100110011001110010100110001000100000000 #"
b110100110011001110010100110001000100000000 $
b110100110011001110010100110001000100000000 _
b10100 p
b10100 ."
b1001010100000010111101111100 u
b100001111101010111110101001110 ("
b100001111101010111110101001110 ,"
b100001111101010111110101001110 1
b100001111101010111110101001110 $"
b100001111101010111110101001110 )"
1(
1H
#352
0(
0H
#360
b10001100000101011101101001000011 0
b10010111001100111111011101000110 2
b1011111111100000111000001110000011100000111000001110000011100000 %"
b10111111111000001110000011100000 +"
b111000000110100110011001111101 '"
b11001110010101111010010000111101 /
b11001110010101111010010000111101 *"
b11001110010101111010010000111101 -"
b1001010100000010111101111011 u
b10101 p
b10101 ."
b100 }
b0 o
b11111111 ~
b11100000111000001110000011100000111000001110000011111111101 ""
b0 |
b1001011001001001100111101010111100000000000000000001000100000000 #"
b1001011001001001100111101010111100000000000000000001000100000000 $
b1001011001001001100111101010111100000000000000000001000100000000 _
0m
b10110001100110001000010011101 ("
b10110001100110001000010011101 ,"
b10110001100110001000010011101 1
b10110001100110001000010011101 $"
b10110001100110001000010011101 )"
1(
1H
#368
0(
0H
#376
b100010000101110101110011010001 0
b11100011101001111001100101000001 2
b1110000011100000111000001110000011100000111000001110000011100000 %"
b11100000111000001110000011100000 +"
b10000111111101000111000111000110 '"
b10111011000101111100010101110100 /
b10111011000101111100010101110100 *"
b10111011000101111100010101110100 -"
b10 }
b10 n
b10000000 w
b11111111111111111111111111111111 o
b11100000111000001110000011100000111000001110000011100000111 ""
b11100000111000001110000011100000111000001110000011111111101 #"
b11100000111000001110000011100000111000001110000011111111101 $
b11100000111000001110000011100000111000001110000011111111101 _
b11111111 !"
b11111111 #
b11111111 ^
b10110 p
b10110 ."
b1001010100000010111101111010 u
b111000000110100110011001111101 ("
b111000000110100110011001111101 ,"
b111000000110100110011001111101 1
b111000000110100110011001111101 $"
b111000000110100110011001111101 )"
1(
1H
#384
0(
0H
#392
b10001011101011101001100111000110 0
b0 2
03
b1101111110101010101010101010101010101010101010101010101010101011 %"
b11011111101010101010101010101010 +"
b100111110101010000101001000010 '"
b101110100010100110011010011100 /
b101110100010100110011010011100 *"
b101110100010100110011010011100 -"
b1001010100000010111101111001 u
b10111 p
b10111 ."
1l
1&"
b100000101001011110 q
b1 ~
b1101010101010101010101010101010101010101010101010101010111111011 ""
b11 t
b1000 |
b11100000111000001110000011100000111000001110000011100000111 #"
b11100000111000001110000011100000111000001110000011100000111 $
b11100000111000001110000011100000111000001110000011100000111 _
b11111111111111111111111111111111 ("
b11111111111111111111111111111111 ,"
b11111111111111111111111111111111 1
b11111111111111111111111111111111 $"
b11111111111111111111111111111111 )"
1(
1H
#400
0(
0H
#408
b11111111111111111111111111111111 0
b1110111010010001011010001010000 '"
b0 /
b0 *"
b0 -"
13
b1111111111111111111111111111111111111111111111110000000010001000 %"
b11111111111111111111111111111111 +"
0l
0&"
b111111111111010110011111 q
b0 ~
b1000100000000111111111111111111111111111111111111111111111111 ""
b10000 |
b1101010101010101010101010101010101010101010101010101010111111011 #"
b1101010101010101010101010101010101010101010101010101010111111011 $
b1101010101010101010101010101010101010101010101010101010111111011 _
b1 !"
b1 #
b1 ^
b11000 p
b11000 ."
b1001010100000010111101111000 u
1(
1H
#416
0(
0H
#424
b1011011111111101000000001010 0
b10001111011011101001011110101 2
b100010011001100001000100110011000010000000000001010001000000000 %"
b1000100110011000010001001100110 +"
b10000100111011000000001011111110 '"
b101111000000011111010010101111 /
b101111000000011111010010101111 *"
b101111000000011111010010101111 -"
b1001010100000010111101110111 u
b11001 p
b11001 ."
b1000101000000000000100001100110010001000011001100100010 ""
b11000 |
b1000100000000111111111111111111111111111111111111111111111111 #"
b1000100000000111111111111111111111111111111111111111111111111 $
b1000100000000111111111111111111111111111111111111111111111111 _
b0 !"
b0 #
b0 ^
b1110111010010001011010001010000 ("
b1110111010010001011010001010000 ,"
b1110111010010001011010001010000 1
b1110111010010001011010001010000 $"
b1110111010010001011010001010000 )"
1(
1H
#432
0(
0H
#440
b11100111110101100111100111010001 0
b11011110110010001011111110000000 2
b1001100000000000000000000000000000000000000001010001000 %"
b10011000000000000000000 +"
b1010111111110101110111110010001 '"
b11000100101000110000101110100 -"
b11000100101000110000101110100 /
b11000100101000110000101110100 *"
b1000101000000000000000000000000000000000000000011001000000000 ""
b100000 |
b1000101000000000000100001100110010001000011001100100010 #"
b1000101000000000000100001100110010001000011001100100010 $
b1000101000000000000100001100110010001000011001100100010 _
b11010 p
b11010 ."
b1001010100000010111101110110 u
b10000100111011000000001011111110 ("
b10000100111011000000001011111110 ,"
b10000100111011000000001011111110 1
b10000100111011000000001011111110 $"
b10000100111011000000001011111110 )"
1(
1H
#448
0(
0H
#456
b11100100111100100010010111010 0
b10101101000000000100001110110 2
b1010111111111001000000110001010110000000101001100000001100010101 %"
b10101111111110010000001100010101 +"
b11101001111110001111000010010110 '"
b11000111100001101101110110100010 /
b11000111100001101101110110100010 *"
b11000111100001101101110110100010 -"
b1001010100000010111101110101 u
b11011 p
b11011 ."
b1010100011000000011001010000000110101000110000001001111111110101 ""
b101000 |
b1000101000000000000000000000000000000000000000011001000000000 #"
b1000101000000000000000000000000000000000000000011001000000000 $
b1000101000000000000000000000000000000000000000011001000000000 _
b1010111111110101110111110010001 ("
b1010111111110101110111110010001 ,"
b1010111111110101110111110010001 1
b1010111111110101110111110010001 $"
b1010111111110101110111110010001 )"
1(
1H
#464
0(
0H
#472
b100001110000000110101111100100 0
b1101000111000001111000010010110 2
b100000001100110000000001001000000000000100100000000000001111000 %"
b1000000011001100000000010010000 +"
b10011000001101110101010011000001 '"
b1111011111111000010100111011000 -"
b1111011111111000010100111011000 /
b1111011111111000010100111011000 *"
b1111000000000000010010000000000001001000000000110011000000010 ""
b110000 |
b1010100011000000011001010000000110101000110000001001111111110101 #"
b1010100011000000011001010000000110101000110000001001111111110101 $
b1010100011000000011001010000000110101000110000001001111111110101 _
b11100 p
b11100 ."
b1001010100000010111101110100 u
b11101001111110001111000010010110 ("
b11101001111110001111000010010110 ,"
b11101001111110001111000010010110 1
b11101001111110001111000010010110 $"
b11101001111110001111000010010110 )"
1(
1H
#480
0(
0H
#488
b1100110000110010101011101110100 0
b11100110000100111101010101111100 2
b11111011101100110010111101010100000000000000000 %"
b111110111011001 +"
b111001001100011100100100001101 '"
b10011001011001110001010111010001 /
b10011001011001110001010111010001 *"
b10011001011001110001010111010001 -"
b1001010100000010111101110011 u
b11101 p
b11101 ."
b11100 x
b11100 K
b10101011110100110011011101111100000000000000000 ""
b111000 |
b1111000000000000010010000000000001001000000000110011000000010 #"
b1111000000000000010010000000000001001000000000110011000000010 $
b1111000000000000010010000000000001001000000000110011000000010 _
b10011000001101110101010011000001 ("
b10011000001101110101010011000001 ,"
b10011000001101110101010011000001 1
b10011000001101110101010011000001 $"
b10011000001101110101010011000001 )"
1(
1H
#496
0(
0H
